picture_font "Scheduler_Meter_Font"
{
  delimiter { 255, 2, 200 },		//delimiter color (full red)
  file "Scheduler_Meter_Font.png",		//file name
  chars
  {
    ' ',
    '0'-'9',
    'A'-'Z',
    '&',
    '!',
    '"',
    '$',
    ',',
    '-',
    '.',
    ':',
    ';',
    '=',
    '?',
    '@',
    '_'   //character sequence (ascii)
  }
}
