picture_font "com-diag-bold-6-black"
{
  delimiter { 0xff, 0, 0 },		//delimiter color (full red)
  file "com-diag-bold-6-black.png",	//file name
  chars
  {
    ' ' - '~', 0x7f			//character sequence (ascii)
  }
}
