picture_font "arial-bold-12-white"
{
  delimiter { 0xff, 0, 0 },		//delimiter color (full red)
  file "arial-bold-12-white.png",	//file name
  chars
  {
    ' ' - '~', 0x7f			//character sequence (ascii)
  }
}
