picture_font "BlazStars_Base_MeterFont"
{
  delimiter { 0, 255, 0 },		//delimiter color (full green)
  file "BlazStars_Base_MeterFont.png",	//file name
  chars
  {
    ' ',
    '0'-'9',
    ',','.','$'
  }
}
