picture_font "MBERN_COND_36_YEL"
{
  delimiter { 255, 2, 200 },		//delimiter color (full red)
  file "MBERN_COND_36_YEL.png",	//file name
  chars
  {
    ' ',
    '0'-'9',
    'A'-'Z',
    'a'-'z',
    '&', '!', '"', '$', ',', '-', '.', ':', ';', '=', '?', '_', '<' //character sequence (ascii)
  }
}
